{
  "type": "service_account",
  "project_id": "high-magpie-173716",
  "private_key_id": "1a9e3617b7e5b4d63231173a652d4e99561d1743",
  "private_key": "-----BEGIN PRIVATE KEY-----\nMIIEvAIBADANBgkqhkiG9w0BAQEFAASCBKYwggSiAgEAAoIBAQCOIaiovKUj2y53\nDdFqsHYkdVve/GJgtIMWKa8xPxsKjBlvb5e8uvXEgWrv5zv2DO+argaXZPitcVWY\n8jEv8qGlUAn0r1yDU8KhKj1OcCMAYkzEBi/HGxEedfog4UqtNjAsYaewa4lx0/kz\nAt4iwfhpKtKiKeuIq6P92de4rePhXh9aN3edmtAZQh7OPc+qXoP+BtIJpva9FaMe\nlD2qhaR1IncNTwjztoWidNz9l7/id2/rzM+UNBgFoW5IHgcXz/LRtdxf5bcwnctf\nlGRU6wyTNlKHzYihIa/l6ENVpnMRvYVuVvHiWjHQz5yJWfcZ1+vS4APgOKh6iCBf\nTEYmhoOVAgMBAAECggEABADitU4LAMWNu4DCI1UxHrnHirJlOwAaqScnbiWu508m\n8EKebYx+m7hhgLxsrfOTVDIOsXkAoDIPDS3VQNp+vx9QCHpgCrrzQoLkEy+JbNtX\n+jWKZvtWMht0njR6XAKovLdLd+avimtEG7G6/BOmoZ+5KyQvJDxhdCcMsoEDaDep\nvOpVG7gwOjjUMsb85BctsfIA0QkE1Yy+pKvSj9aPCxyFsy7CDbBEMeCS0cNdLxLp\nyF5sSceoLifeJ/6w9PtR8cPOM0HUOWxMc++ss14yznTX7k5dY/QURMOZp3odhqYi\nLowCYnA1SENMbw1nqb8SYvpplu8UepHZ7g3DD1cECQKBgQDHGdQ1eP5LWXEnNBD+\nkq8jAr7/TDGVEBYkhljdmgucUqrMOAJI494j3NCaVpwwK7DXqVIPjAtvk/rZcbu+\nTjT5fa55bvGamzuu7mhZr0zoVq5nc5wGuA5E7+NDV5thtyNMuMn9wMrs3nbGm/Jf\nJIPMNDpCbt5zKvuOrxHxDeiBlwKBgQC2v/ZBBsEjEBpoinqFx4T5GCrfWr4RKd3o\nWTUaN7S1hzVEQJK///3XWeu4wmpfZKovhL05fGD3hDoXfcopNthrK9jLonUngRBO\n42zazAusU+CeXnvhjeYtjF1rLg7PyrOfg5mVNo552z7x5EY2K0+q2IEQ23yukGec\nhLnDDcoxswKBgDBw11GfO3eHrmEUaOIXPCcvftrMZe/Xdxux2CMqXJLPBiEjq2Ki\nliRxkAtM8TlDGAaQepevwgSGo2yOIFh/3KGq8202EfBEvnOkK51Oak7I8CvZU+fK\nliYtm0SCJxrSHPOIrhRf+L9CrPFLdd+yGaLwPhB1uweYOJYRgDL+6EfHAoGAZQH+\n2vwfvgCFiCiaBd08Wu2HrMIb8aKhW24LEr2dbQQZZesG8YZNSD0UM5+JacZa5j7I\n08AyXDxCW3+UQGlm/v1SK2NUu4vzdpbvMJO9E/ecXAw/DnD+u0gszjO7zg/sbgsv\n1TA9WY7b4JjaUdBojTZzR9z4sgdwrSsS/YNesU8CgYAJKKBugHaty4NVIO8Hc8Pe\nlug4AcMVb2ic8WYNp51oJhK4ouNN5Nh9mzl+7T6AP4uz09TQe21pEqpP5u0vrD2R\n/UgmwrCFlU35Fh+6pxS8AHPj/Map2ZxVOpHmJck9fZVu2mA68G0Eyx8Qy4Sa42fa\nuuapN8isHS5W7mus+0xj1Q==\n-----END PRIVATE KEY-----\n",
  "client_email": "sheet-591@high-magpie-173716.iam.gserviceaccount.com",
  "client_id": "100484983084904538056",
  "auth_uri": "https://accounts.google.com/o/oauth2/auth",
  "token_uri": "https://accounts.google.com/o/oauth2/token",
  "auth_provider_x509_cert_url": "https://www.googleapis.com/oauth2/v1/certs",
  "client_x509_cert_url": "https://www.googleapis.com/robot/v1/metadata/x509/sheet-591%40high-magpie-173716.iam.gserviceaccount.com"
}
